{"data":[{"name":"Dirty Cookies","ocpc":"9XVU73ERQ3000000000000000","qr":"https:\/\/www.cannabisreports.com\/strain-reports\/unknown-breeder\/dirty-cookies\/qr-code.svg","url":"https:\/\/www.cannabisreports.com\/strain-reports\/unknown-breeder\/dirty-cookies","image":"https:\/\/www.cannabisreports.com\/images\/strains\/no_image.png","seedCompany":{"name":"Unknown Breeder","ocpc":"9XVU700000000000000000000"},"genetics":{"names":"( White Fire OG (WiFi OG) x Herijuana ) x Girl Scout Cookies","ocpc":"( PDQDDLKJUH000000000000000 x 9XVU792CUH000000000000000 ) x 4KXM32V9YF000000000000000"},"lineage":{"Afghanistan":"AF","South Africa":"ZA"},"children":false,"createdAt":"2016-08-11 20:03:40","updatedAt":"2016-08-11 20:03:40"},{"name":"Doctor Cookies","ocpc":"9XVU732GTR000000000000000","qr":"https:\/\/www.cannabisreports.com\/strain-reports\/unknown-breeder\/doctor-cookies\/qr-code.svg","url":"https:\/\/www.cannabisreports.com\/strain-reports\/unknown-breeder\/doctor-cookies","image":"https:\/\/www.cannabisreports.com\/images\/strains\/a\/full_a555e0fd3a862c9eaf126ed76521717fc09e54d0.jpg","seedCompany":{"name":"Unknown Breeder","ocpc":"9XVU700000000000000000000"},"genetics":{"names":"Forum Girl Scout Cookies (cut) x CBD MediHaze","ocpc":"9XVU7P2XAC000000000000000 x KGQGE3RWVC000000000000000"},"lineage":{"Afghanistan":"AF","Colombia":"CO","India":"IN","Mexico":"MX","South Africa":"ZA","Thailand":"TH","United States":"US"},"children":false,"createdAt":"2016-06-24 22:38:22","updatedAt":"2016-06-24 22:38:23"},{"name":"Electric Mayhem","ocpc":"9XVU7RPLLE000000000000000","qr":"https:\/\/www.cannabisreports.com\/strain-reports\/unknown-breeder\/electric-mayhem\/qr-code.svg","url":"https:\/\/www.cannabisreports.com\/strain-reports\/unknown-breeder\/electric-mayhem","image":"https:\/\/www.cannabisreports.com\/images\/strains\/no_image.png","seedCompany":{"name":"Unknown Breeder","ocpc":"9XVU700000000000000000000"},"genetics":{"names":"White Widow \/ Granddaddy Purple (GDP) \/ Green Crack \/ Mango ???","ocpc":"K3TYMWC3HY000000000000000 \/ 9XVU7HA9KV000000000000000 \/ 9XVU7XQD9D000000000000000 \/ 3AQF2ZRVGD000000000000000 ???"},"lineage":{"Afghanistan":"AF","Brazil":"BR","Colombia":"CO","India":"IN","Mexico":"MX","Thailand":"TH","Ukraine":"UA"},"children":false,"createdAt":"2016-06-23 17:39:27","updatedAt":"2016-06-23 17:40:04"},{"name":"My Friend Jack","ocpc":"9XVU7ERQUT000000000000000","qr":"https:\/\/www.cannabisreports.com\/strain-reports\/unknown-breeder\/my-friend-jack\/qr-code.svg","url":"https:\/\/www.cannabisreports.com\/strain-reports\/unknown-breeder\/my-friend-jack","image":"https:\/\/www.cannabisreports.com\/images\/strains\/no_image.png","seedCompany":{"name":"Unknown Breeder","ocpc":"9XVU700000000000000000000"},"genetics":{"names":false,"ocpc":false},"lineage":{"Afghanistan":"AF"},"children":false,"createdAt":"2016-06-20 17:13:16","updatedAt":"2016-06-20 17:19:33"},{"name":"Sour Cat","ocpc":"9XVU7WAZYJ000000000000000","qr":"https:\/\/www.cannabisreports.com\/strain-reports\/unknown-breeder\/sour-cat\/qr-code.svg","url":"https:\/\/www.cannabisreports.com\/strain-reports\/unknown-breeder\/sour-cat","image":"https:\/\/www.cannabisreports.com\/images\/strains\/no_image.png","seedCompany":{"name":"Unknown Breeder","ocpc":"9XVU700000000000000000000"},"genetics":{"names":"Sour Lemon OG x Cannatonic","ocpc":"GZY2LUNTQR000000000000000 x PW7Q4VUUKD000000000000000"},"lineage":{"Afghanistan":"AF","Mexico":"MX","United States":"US"},"children":false,"createdAt":"2016-06-16 19:33:56","updatedAt":"2016-06-16 19:33:56"},{"name":"Red Lemon","ocpc":"9XVU74F297000000000000000","qr":"https:\/\/www.cannabisreports.com\/strain-reports\/unknown-breeder\/red-lemon\/qr-code.svg","url":"https:\/\/www.cannabisreports.com\/strain-reports\/unknown-breeder\/red-lemon","image":"https:\/\/www.cannabisreports.com\/images\/strains\/no_image.png","seedCompany":{"name":"Unknown Breeder","ocpc":"9XVU700000000000000000000"},"genetics":{"names":"Red Dragon x Lemon OG Kush","ocpc":"WAVLJEFFJT000000000000000 x TTUYNWX3TA000000000000000"},"lineage":{"Afghanistan":"AF","Brazil":"BR","Colombia":"CO","Mexico":"MX","Thailand":"TH"},"children":false,"createdAt":"2016-06-16 19:32:04","updatedAt":"2016-06-16 19:32:04"},{"name":"Acid Dough","ocpc":"JLJNZ3RGYY000000000000000","qr":"https:\/\/www.cannabisreports.com\/strain-reports\/ripper-seeds\/acid-dough\/qr-code.svg","url":"https:\/\/www.cannabisreports.com\/strain-reports\/ripper-seeds\/acid-dough","image":"https:\/\/www.cannabisreports.com\/images\/strains\/9\/full_94ac38e7dbb3e8c7bcad9e7b83f56075a812350b.jpg","seedCompany":{"name":"Ripper Seeds","ocpc":"JLJNZ00000000000000000000"},"genetics":{"names":"Lilly (Guild) x OG Badazz","ocpc":"7URPKLGAUZ000000000000000 x 9XVU7ZFGXJ000000000000000"},"lineage":{"Afghanistan":"AF","Congo - Brazzaville":"CG","Congo - Kinshasa":"CD","India":"IN","Pakistan":"PK","R\u00e9union":"RE"},"children":false,"createdAt":"2016-06-16 17:06:33","updatedAt":"2016-06-16 17:06:34"},{"name":"OG Badazz","ocpc":"9XVU7ZFGXJ000000000000000","qr":"https:\/\/www.cannabisreports.com\/strain-reports\/unknown-breeder\/og-badazz\/qr-code.svg","url":"https:\/\/www.cannabisreports.com\/strain-reports\/unknown-breeder\/og-badazz","image":"https:\/\/www.cannabisreports.com\/images\/strains\/no_image.png","seedCompany":{"name":"Unknown Breeder","ocpc":"9XVU700000000000000000000"},"genetics":{"names":"( OG Kush x Afghan Kush ) x Purple Urkle","ocpc":"( 9XVU7GD2AP000000000000000 x 6Z3CV9HXA6000000000000000 ) x 9XVU7M3ZXJ000000000000000"},"lineage":{"Afghanistan":"AF"},"children":["JLJNZ3RGYY000000000000000"],"createdAt":"2016-06-16 17:05:38","updatedAt":"2016-06-16 17:05:38"},{"name":"Alice (Delicatessen)","ocpc":"JZRZVRARZ4000000000000000","qr":"https:\/\/www.cannabisreports.com\/strain-reports\/delicatessen\/alice-delicatessen\/qr-code.svg","url":"https:\/\/www.cannabisreports.com\/strain-reports\/delicatessen\/alice-delicatessen","image":"https:\/\/www.cannabisreports.com\/images\/strains\/no_image.png","seedCompany":{"name":"Delicatessen","ocpc":"JZRZV00000000000000000000"},"genetics":{"names":"Queen Mother (Reina Madre) x Congo (Bangi)","ocpc":"JZRZVNZT37000000000000000 x JCEP2CQD2H000000000000000"},"lineage":{"Congo - Brazzaville":"CG","India":"IN","Pakistan":"PK","R\u00e9union":"RE"},"children":false,"createdAt":"2016-06-16 17:02:55","updatedAt":"2016-06-16 17:02:56"},{"name":"Spicy Bitch","ocpc":"JDDJ9TVRJ6000000000000000","qr":"https:\/\/www.cannabisreports.com\/strain-reports\/exotic-seed-co\/spicy-bitch\/qr-code.svg","url":"https:\/\/www.cannabisreports.com\/strain-reports\/exotic-seed-co\/spicy-bitch","image":"https:\/\/www.cannabisreports.com\/images\/strains\/0\/full_03a7a42ec09b72db0bf0afda894c18e6cb817bfd.jpg","seedCompany":{"name":"Exotic Seed Co.","ocpc":"JDDJ900000000000000000000"},"genetics":{"names":"Queen Mother (Reina Madre) x AK-47","ocpc":"JZRZVNZT37000000000000000 x CYGU94JYKY000000000000000"},"lineage":{"Afghanistan":"AF","Colombia":"CO","Congo - Brazzaville":"CG","India":"IN","Mexico":"MX","Pakistan":"PK","R\u00e9union":"RE","Thailand":"TH"},"children":false,"createdAt":"2016-06-16 17:01:44","updatedAt":"2016-06-16 17:01:45"}],"meta":{"pagination":{"total":9006,"count":10,"per_page":10,"current_page":1,"total_pages":901,"links":{"next":"https:\/\/api.otreeba.com\/v1\/strains?page=2"}}}}